{
    "$metadata": {
        "elements": 5894,
        "frequencies": {
            "punctuation": 6510
        },
        "id": 1839,
        "indexes": 33275,
        "name": "L884.xml",
        "tokens": 27381,
        "words": 20871
    },
    "$protected": false,
    "auteurs": [
        {
            "date_deces": "1897",
            "date_naissance": "1831",
            "deces": "1897 (à Paris)",
            "genre": "homme",
            "naissance": "1831 (à Paris)",
            "nom": "MEILHAC (né Majak)",
            "nom_complet": "MEILHAC (né Majak) Henri",
            "nom_complet_usage": "MEILHAC Henri",
            "nom_usage": "MEILHAC",
            "prenom": "Henri",
            "prenom_usage": "Henri"
        },
        {
            "date_deces": "1908",
            "date_naissance": "1834",
            "deces": "1908 (à Paris)",
            "genre": "homme",
            "naissance": "1834 (à Paris)",
            "nom": "HALÉVY",
            "nom_complet": "HALÉVY Ludovic",
            "nom_complet_usage": "HALÉVY Ludovic",
            "nom_usage": "HALÉVY",
            "prenom": "Ludovic",
            "prenom_usage": "Ludovic"
        }
    ],
    "cote": "L884",
    "domaines": {
        "domaine": [
            "non renseigné"
        ],
        "genres": [
            "théâtre"
        ],
        "mots_cles": [
            "non renseigné"
        ],
        "nature": "",
        "specif": ""
    },
    "edition": {
        "collection": "",
        "dates": {
            "commentaire": "",
            "edition": "1867",
            "frantext": "1867",
            "publication": "1867"
        },
        "editeur": {
            "lieu": "",
            "nom": "Paris : M. Levy, 1867."
        },
        "nbpages": "",
        "refpages": "",
        "titres": {
            "titre": "La Vie parisienne",
            "titrepart": "La Vie parisienne",
            "titrevol": ""
        }
    },
    "statut_juridique": {
        "daut": "0",
        "dedit": "0",
        "dinedit": "0",
        "nicoli": "1"
    }
}